{
  "data": [
    {
      "id": "498951",
      "type": "episode",
      "attributes": {
        "title": "COVID-19 Travel - Trailers!",
        "published_at": "2021-03-22T17:38:35.201Z",
        "formatted_published_at": "March 22, 2021",
        "share_url": "https://share.transistor.fm/s/e5696157"
      },
      "relationships": {}
    },
    {
      "id": "314851",
      "type": "episode",
      "attributes": {
        "title": "Health: Fast update",
        "published_at": "2020-08-16T16:00:00.000Z",
        "formatted_published_at": "August 16, 2020",
        "share_url": "https://share.transistor.fm/s/5dc5c10f"
      },
      "relationships": {}
    },
    {
      "id": "314850",
      "type": "episode",
      "attributes": {
        "title": "Finance: Becoming a 1 car family",
        "published_at": "2020-08-09T18:46:06.232Z",
        "formatted_published_at": "August 9, 2020",
        "share_url": "https://share.transistor.fm/s/a11b814c"
      },
      "relationships": {}
    },
    {
      "id": "299133",
      "type": "episode",
      "attributes": {
        "title": "Health - Home Air Quality",
        "published_at": "2020-08-02T15:00:00.000Z",
        "formatted_published_at": "August 2, 2020",
        "share_url": "https://share.transistor.fm/s/a483920d"
      },
      "relationships": {}
    },
    {
      "id": "299137",
      "type": "episode",
      "attributes": {
        "title": "Parenting - School in the age of COVID-19",
        "published_at": "2020-07-26T15:20:00.000Z",
        "formatted_published_at": "July 26, 2020",
        "share_url": "https://share.transistor.fm/s/5e7dbc56"
      },
      "relationships": {}
    },
    {
      "id": "298952",
      "type": "episode",
      "attributes": {
        "title": "Parenting - COVID-19 Life at the Cabin",
        "published_at": "2020-07-19T17:46:49.056Z",
        "formatted_published_at": "July 19, 2020",
        "share_url": "https://share.transistor.fm/s/e08b288f"
      },
      "relationships": {}
    },
    {
      "id": "218103",
      "type": "episode",
      "attributes": {
        "title": "Parenting - COVID 19 style",
        "published_at": "2020-03-14T21:00:00.000Z",
        "formatted_published_at": "March 14, 2020",
        "share_url": "https://share.transistor.fm/s/6c9f5ac3"
      },
      "relationships": {}
    },
    {
      "id": "184047",
      "type": "episode",
      "attributes": {
        "title": "Health - Keto, Checklists, Goals!",
        "published_at": "2020-01-20T09:00:00.000Z",
        "formatted_published_at": "January 20, 2020",
        "share_url": "https://share.transistor.fm/s/6e550400"
      },
      "relationships": {}
    },
    {
      "id": "165026",
      "type": "episode",
      "attributes": {
        "title": "Parenting - Flying Solo While Sick",
        "published_at": "2019-12-16T20:00:00.000Z",
        "formatted_published_at": "December 16, 2019",
        "share_url": "https://share.transistor.fm/s/6bfa1340"
      },
      "relationships": {}
    },
    {
      "id": "148824",
      "type": "episode",
      "attributes": {
        "title": "Real estate - Airbnb Superhost",
        "published_at": "2019-12-09T13:00:00.000Z",
        "formatted_published_at": "December 9, 2019",
        "share_url": "https://share.transistor.fm/s/0defac24"
      },
      "relationships": {}
    },
    {
      "id": "146906",
      "type": "episode",
      "attributes": {
        "title": "Parenting - Piano 🎵",
        "published_at": "2019-12-02T19:00:00.000Z",
        "formatted_published_at": "December 2, 2019",
        "share_url": "https://share.transistor.fm/s/93ebf873"
      },
      "relationships": {}
    },
    {
      "id": "129182",
      "type": "episode",
      "attributes": {
        "title": "Real Estate - Tear down walls",
        "published_at": "2019-11-25T13:00:00.000Z",
        "formatted_published_at": "November 25, 2019",
        "share_url": "https://share.transistor.fm/s/8e02969d"
      },
      "relationships": {}
    },
    {
      "id": "125291",
      "type": "episode",
      "attributes": {
        "title": "Real Estate - Long term renters (tenants)",
        "published_at": "2019-11-18T13:00:00.000Z",
        "formatted_published_at": "November 18, 2019",
        "share_url": "https://share.transistor.fm/s/7b97d1b2"
      },
      "relationships": {}
    },
    {
      "id": "120215",
      "type": "episode",
      "attributes": {
        "title": "Parenting - Home Birth vs Hospital birth",
        "published_at": "2019-11-11T13:00:00.000Z",
        "formatted_published_at": "November 11, 2019",
        "share_url": "https://share.transistor.fm/s/e1254666"
      },
      "relationships": {}
    },
    {
      "id": "118691",
      "type": "episode",
      "attributes": {
        "title": "Real Estate - Second Home vs. Rental",
        "published_at": "2019-11-04T13:00:00.000Z",
        "formatted_published_at": "November 4, 2019",
        "share_url": "https://share.transistor.fm/s/c16027b0"
      },
      "relationships": {}
    },
    {
      "id": "116350",
      "type": "episode",
      "attributes": {
        "title": "Finances - Groceries",
        "published_at": "2019-10-28T13:00:00.000Z",
        "formatted_published_at": "October 28, 2019",
        "share_url": "https://share.transistor.fm/s/e1458c7d"
      },
      "relationships": {}
    },
    {
      "id": "113819",
      "type": "episode",
      "attributes": {
        "title": "Health - Halloween",
        "published_at": "2019-10-21T14:00:00.000Z",
        "formatted_published_at": "October 21, 2019",
        "share_url": "https://share.transistor.fm/s/eb4e6130"
      },
      "relationships": {}
    },
    {
      "id": "109295",
      "type": "episode",
      "attributes": {
        "title": "Real Estate - Getting Started",
        "published_at": "2019-10-15T00:00:00.000Z",
        "formatted_published_at": "October 15, 2019",
        "share_url": "https://share.transistor.fm/s/b9b6250e"
      },
      "relationships": {}
    },
    {
      "id": "107969",
      "type": "episode",
      "attributes": {
        "title": "Disneyland - The secrets to a successful trip.",
        "published_at": "2019-10-08T01:00:00.000Z",
        "formatted_published_at": "October 8, 2019",
        "share_url": "https://share.transistor.fm/s/632ac184"
      },
      "relationships": {}
    },
    {
      "id": "101767",
      "type": "episode",
      "attributes": {
        "title": "Relationships - Maintaining Friendships",
        "published_at": "2019-09-30T14:00:00.000Z",
        "formatted_published_at": "September 30, 2019",
        "share_url": "https://share.transistor.fm/s/2b90cbe5"
      },
      "relationships": {}
    }
  ],
  "meta": {
    "currentPage": 1,
    "totalPages": 2,
    "totalCount": 24
  }
}